Title: Intro Call – All Gender Welcome

----

Description: Online-Kennenlernen mit radikal:klima

----

Place: Online (Zoom-Call)

----

Date: 2021-04-01 18:00:00

----

Totime: 

----

Registerlink: 

----

Registerlinktext: 

----

Text: 

----

Blocks: []

----

Category: Info-Treffen

----

Previewimage: 

----

Fromtime: 18:00:00